2021-04-26T15:23:07+00:00 CRITICAL syntax error, unexpected '=>' (T_DOUBLE_ARROW), expecting ')' en C:\Users\barvo\Documents\gitlab\tucovidshop-wp\wp-content\themes\suros\empresa\antigenos.php en la línea 14

2021-04-26T15:23:14+00:00 CRITICAL syntax error, unexpected '=>' (T_DOUBLE_ARROW), expecting ')' en C:\Users\barvo\Documents\gitlab\tucovidshop-wp\wp-content\themes\suros\empresa\antigenos.php en la línea 14

